[
  { "id": "A", "label": "A", "type": "natural", "active": false },
  { "id": "As", "label": "A♯", "type": "sharp", "active": false },
  { "id": "Af", "label": "A♭", "type": "flat", "active": false },
  { "id": "B", "label": "B", "type": "natural", "active": false },
  { "id": "Bf", "label": "B♭", "type": "flat", "active": false },
  { "id": "C", "label": "C", "type": "natural", "active": false },
  { "id": "Cs", "label": "C♯", "type": "sharp", "active": false },
  { "id": "D", "label": "D", "type": "natural", "active": false },
  { "id": "Ds", "label": "D♯", "type": "sharp", "active": false },
  { "id": "Df", "label": "D♭", "type": "flat", "active": false },
  { "id": "E", "label": "E", "type": "natural", "active": false },
  { "id": "Ef", "label": "E♭", "type": "flat", "active": false },
  { "id": "F", "label": "F", "type": "natural", "active": false },
  { "id": "Fs", "label": "F♯", "type": "sharp", "active": false },
  { "id": "G", "label": "G", "type": "natural", "active": false },
  { "id": "Gs", "label": "G♯", "type": "sharp", "active": false },
  { "id": "Gf", "label": "G♭", "type": "flat", "active": false }
]